{
    "totalSpace": 268435456000, 
    "last_rev_id": 119, 
    "usedSpace": 380826907, 
    "availableSpace": 268054629093, 
    "mode": "list", 
    "pendingRequests": 0, 
    "my_files": {
        "content": [
            {
                "status": "new", 
                "is_shared": "no", 
                "share_id": "", 
                "user_id": 7, 
                "name": "files", 
                "shared_by": 0, 
                "shared_date": "", 
                "share_level": "", 
                "parent_id": null, 
                "last_updated_date": "2012-08-07 08:28:31", 
                "last_updated_by": "Akhter, Fazeel", 
                "link": "", 
                "created_date": "2012-08-07 08:28:31", 
                "item_id": 13, 
                "path": "My Files/files", 
                "path_by_id": "/", 
                "type": "0", 
                "mime_type": "", 
                "size": 0
            }, 
            {
                "status": "new", 
                "is_shared": "no", 
                "share_id": "", 
                "user_id": 7, 
                "name": "Stemiona.rtf", 
                "shared_by": 0, 
                "shared_date": "", 
                "share_level": "", 
                "parent_id": null, 
                "last_updated_date": "2012-08-07 08:29:20", 
                "last_updated_by": "Akhter, Fazeel", 
                "link": "http://ep-dev.yakimbi.com/edocs/download", 
                "created_date": "2012-08-07 08:29:20", 
                "item_id": 14, 
                "path": "My Files/Stemiona.rtf", 
                "path_by_id": "/", 
                "type": "1", 
                "mime_type": "693", 
                "size": 864
            }, 
            {
                "status": "new", 
                "is_shared": "no", 
                "share_id": "", 
                "user_id": 7, 
                "name": "sup_tutorial_ios_objectapi_application_development.pdf", 
                "shared_by": 0, 
                "shared_date": "", 
                "share_level": "", 
                "parent_id": null, 
                "last_updated_date": "2012-08-07 08:29:20", 
                "last_updated_by": "Akhter, Fazeel", 
                "link": "http://ep-dev.yakimbi.com/edocs/download", 
                "created_date": "2012-08-07 08:29:20", 
                "item_id": 15, 
                "path": "My Files/sup_tutorial_ios_objectapi_application_development.pdf", 
                "path_by_id": "/", 
                "type": "1", 
                "mime_type": "3", 
                "size": 978983
            }, 
            {
                "status": "new", 
                "is_shared": "no", 
                "share_id": "", 
                "user_id": 7, 
                "name": "Strougo_VTMSpring2011.pdf", 
                "shared_by": 0, 
                "shared_date": "", 
                "share_level": "", 
                "parent_id": null, 
                "last_updated_date": "2012-08-07 08:29:31", 
                "last_updated_by": "Akhter, Fazeel", 
                "link": "http://ep-dev.yakimbi.com/edocs/download", 
                "created_date": "2012-08-07 08:29:31", 
                "item_id": 16, 
                "path": "My Files/Strougo_VTMSpring2011.pdf", 
                "path_by_id": "/", 
                "type": "1", 
                "mime_type": "3", 
                "size": 7883101
            }, 
            {
                "status": "new", 
                "is_shared": "no", 
                "share_id": "", 
                "user_id": 7, 
                "name": "IMG_0026.JPG", 
                "shared_by": 0, 
                "shared_date": "", 
                "share_level": "", 
                "parent_id": null, 
                "last_updated_date": "2012-08-07 08:30:09", 
                "last_updated_by": "Akhter, Fazeel", 
                "link": "http://ep-dev.yakimbi.com/edocs/download", 
                "created_date": "2012-08-07 08:30:09", 
                "item_id": 17, 
                "path": "My Files/IMG_0026.JPG", 
                "path_by_id": "/", 
                "type": "1", 
                "mime_type": "24", 
                "size": 286258
            }, 
            {
                "status": "new", 
                "is_shared": "no", 
                "share_id": "", 
                "user_id": 7, 
                "name": "IMG_0023.JPG", 
                "shared_by": 0, 
                "shared_date": "", 
                "share_level": "", 
                "parent_id": null, 
                "last_updated_date": "2012-08-07 08:30:10", 
                "last_updated_by": "Akhter, Fazeel", 
                "link": "http://ep-dev.yakimbi.com/edocs/download", 
                "created_date": "2012-08-07 08:30:10", 
                "item_id": 18, 
                "path": "My Files/IMG_0023.JPG", 
                "path_by_id": "/", 
                "type": "1", 
                "mime_type": "24", 
                "size": 269281
            }, 
            {
                "status": "new", 
                "is_shared": "no", 
                "share_id": "", 
                "user_id": 7, 
                "name": "IMG_0025.JPG", 
                "shared_by": 0, 
                "shared_date": "", 
                "share_level": "", 
                "parent_id": null, 
                "last_updated_date": "2012-08-07 08:30:15", 
                "last_updated_by": "Akhter, Fazeel", 
                "link": "http://ep-dev.yakimbi.com/edocs/download", 
                "created_date": "2012-08-07 08:30:15", 
                "item_id": 19, 
                "path": "My Files/IMG_0025.JPG", 
                "path_by_id": "/", 
                "type": "1", 
                "mime_type": "24", 
                "size": 293412
            }, 
            {
                "status": "new", 
                "is_shared": "no", 
                "share_id": "", 
                "user_id": 7, 
                "name": "IMG_0021.JPG", 
                "shared_by": 0, 
                "shared_date": "", 
                "share_level": "", 
                "parent_id": null, 
                "last_updated_date": "2012-08-07 08:30:20", 
                "last_updated_by": "Akhter, Fazeel", 
                "link": "http://ep-dev.yakimbi.com/edocs/download", 
                "created_date": "2012-08-07 08:30:20", 
                "item_id": 20, 
                "path": "My Files/IMG_0021.JPG", 
                "path_by_id": "/", 
                "type": "1", 
                "mime_type": "24", 
                "size": 326635
            }, 
            {
                "status": "new", 
                "is_shared": "no", 
                "share_id": "", 
                "user_id": 7, 
                "name": "IMG_0028.JPG", 
                "shared_by": 0, 
                "shared_date": "", 
                "share_level": "", 
                "parent_id": null, 
                "last_updated_date": "2012-08-07 08:30:24", 
                "last_updated_by": "Akhter, Fazeel", 
                "link": "http://ep-dev.yakimbi.com/edocs/download", 
                "created_date": "2012-08-07 08:30:24", 
                "item_id": 21, 
                "path": "My Files/IMG_0028.JPG", 
                "path_by_id": "/", 
                "type": "1", 
                "mime_type": "24", 
                "size": 212257
            }, 
            {
                "status": "new", 
                "is_shared": "no", 
                "share_id": "", 
                "user_id": 7, 
                "name": "IMG_0027.JPG", 
                "shared_by": 0, 
                "shared_date": "", 
                "share_level": "", 
                "parent_id": null, 
                "last_updated_date": "2012-08-07 08:30:30", 
                "last_updated_by": "Akhter, Fazeel", 
                "link": "http://ep-dev.yakimbi.com/edocs/download", 
                "created_date": "2012-08-07 08:30:30", 
                "item_id": 22, 
                "path": "My Files/IMG_0027.JPG", 
                "path_by_id": "/", 
                "type": "1", 
                "mime_type": "24", 
                "size": 184790
            }, 
            {
                "status": "new", 
                "is_shared": "no", 
                "share_id": "", 
                "user_id": 7, 
                "name": "IMG_0019.JPG", 
                "shared_by": 0, 
                "shared_date": "", 
                "share_level": "", 
                "parent_id": null, 
                "last_updated_date": "2012-08-07 08:30:34", 
                "last_updated_by": "Akhter, Fazeel", 
                "link": "http://ep-dev.yakimbi.com/edocs/download", 
                "created_date": "2012-08-07 08:30:34", 
                "item_id": 23, 
                "path": "My Files/IMG_0019.JPG", 
                "path_by_id": "/", 
                "type": "1", 
                "mime_type": "24", 
                "size": 305075
            }, 
            {
                "status": "new", 
                "is_shared": "no", 
                "share_id": "", 
                "user_id": 7, 
                "name": "IMG_0024.JPG", 
                "shared_by": 0, 
                "shared_date": "", 
                "share_level": "", 
                "parent_id": null, 
                "last_updated_date": "2012-08-07 08:30:40", 
                "last_updated_by": "Akhter, Fazeel", 
                "link": "http://ep-dev.yakimbi.com/edocs/download", 
                "created_date": "2012-08-07 08:30:40", 
                "item_id": 24, 
                "path": "My Files/IMG_0024.JPG", 
                "path_by_id": "/", 
                "type": "1", 
                "mime_type": "24", 
                "size": 285934
            }, 
            {
                "status": "new", 
                "is_shared": "no", 
                "share_id": "", 
                "user_id": 7, 
                "name": "IMG_0022.JPG", 
                "shared_by": 0, 
                "shared_date": "", 
                "share_level": "", 
                "parent_id": null, 
                "last_updated_date": "2012-08-07 08:30:45", 
                "last_updated_by": "Akhter, Fazeel", 
                "link": "http://ep-dev.yakimbi.com/edocs/download", 
                "created_date": "2012-08-07 08:30:45", 
                "item_id": 25, 
                "path": "My Files/IMG_0022.JPG", 
                "path_by_id": "/", 
                "type": "1", 
                "mime_type": "24", 
                "size": 258605
            }, 
            {
                "status": "new", 
                "is_shared": "no", 
                "share_id": "", 
                "user_id": 7, 
                "name": "IMG_0020.JPG", 
                "shared_by": 0, 
                "shared_date": "", 
                "share_level": "", 
                "parent_id": null, 
                "last_updated_date": "2012-08-07 08:30:51", 
                "last_updated_by": "Akhter, Fazeel", 
                "link": "http://ep-dev.yakimbi.com/edocs/download", 
                "created_date": "2012-08-07 08:30:51", 
                "item_id": 26, 
                "path": "My Files/IMG_0020.JPG", 
                "path_by_id": "/", 
                "type": "1", 
                "mime_type": "24", 
                "size": 306145
            }, 
            {
                "status": "new", 
                "is_shared": "no", 
                "share_id": "", 
                "user_id": 7, 
                "name": "IMG_0018.JPG", 
                "shared_by": 0, 
                "shared_date": "", 
                "share_level": "", 
                "parent_id": null, 
                "last_updated_date": "2012-08-07 08:30:56", 
                "last_updated_by": "Akhter, Fazeel", 
                "link": "http://ep-dev.yakimbi.com/edocs/download", 
                "created_date": "2012-08-07 08:30:56", 
                "item_id": 27, 
                "path": "My Files/IMG_0018.JPG", 
                "path_by_id": "/", 
                "type": "1", 
                "mime_type": "24", 
                "size": 201824
            }, 
            {
                "status": "new", 
                "is_shared": "no", 
                "share_id": "", 
                "user_id": 7, 
                "name": "IMG_0013.JPG", 
                "shared_by": 0, 
                "shared_date": "", 
                "share_level": "", 
                "parent_id": null, 
                "last_updated_date": "2012-08-07 08:31:01", 
                "last_updated_by": "Akhter, Fazeel", 
                "link": "http://ep-dev.yakimbi.com/edocs/download", 
                "created_date": "2012-08-07 08:31:01", 
                "item_id": 28, 
                "path": "My Files/IMG_0013.JPG", 
                "path_by_id": "/", 
                "type": "1", 
                "mime_type": "24", 
                "size": 238826
            }, 
            {
                "status": "new", 
                "is_shared": "no", 
                "share_id": "", 
                "user_id": 7, 
                "name": "IMG_0016.JPG", 
                "shared_by": 0, 
                "shared_date": "", 
                "share_level": "", 
                "parent_id": null, 
                "last_updated_date": "2012-08-07 08:31:06", 
                "last_updated_by": "Akhter, Fazeel", 
                "link": "http://ep-dev.yakimbi.com/edocs/download", 
                "created_date": "2012-08-07 08:31:06", 
                "item_id": 29, 
                "path": "My Files/IMG_0016.JPG", 
                "path_by_id": "/", 
                "type": "1", 
                "mime_type": "24", 
                "size": 222857
            }, 
            {
                "status": "new", 
                "is_shared": "no", 
                "share_id": "", 
                "user_id": 7, 
                "name": "IMG_0015.JPG", 
                "shared_by": 0, 
                "shared_date": "", 
                "share_level": "", 
                "parent_id": null, 
                "last_updated_date": "2012-08-07 08:31:11", 
                "last_updated_by": "Akhter, Fazeel", 
                "link": "http://ep-dev.yakimbi.com/edocs/download", 
                "created_date": "2012-08-07 08:31:11", 
                "item_id": 30, 
                "path": "My Files/IMG_0015.JPG", 
                "path_by_id": "/", 
                "type": "1", 
                "mime_type": "24", 
                "size": 243848
            }, 
            {
                "status": "new", 
                "is_shared": "no", 
                "share_id": "", 
                "user_id": 7, 
                "name": "IMG_0014.JPG", 
                "shared_by": 0, 
                "shared_date": "", 
                "share_level": "", 
                "parent_id": null, 
                "last_updated_date": "2012-08-07 08:31:16", 
                "last_updated_by": "Akhter, Fazeel", 
                "link": "http://ep-dev.yakimbi.com/edocs/download", 
                "created_date": "2012-08-07 08:31:16", 
                "item_id": 31, 
                "path": "My Files/IMG_0014.JPG", 
                "path_by_id": "/", 
                "type": "1", 
                "mime_type": "24", 
                "size": 258099
            }, 
            {
                "status": "new", 
                "is_shared": "no", 
                "share_id": "", 
                "user_id": 7, 
                "name": "IMG_0012.JPG", 
                "shared_by": 0, 
                "shared_date": "", 
                "share_level": "", 
                "parent_id": null, 
                "last_updated_date": "2012-08-07 08:31:22", 
                "last_updated_by": "Akhter, Fazeel", 
                "link": "http://ep-dev.yakimbi.com/edocs/download", 
                "created_date": "2012-08-07 08:31:22", 
                "item_id": 32, 
                "path": "My Files/IMG_0012.JPG", 
                "path_by_id": "/", 
                "type": "1", 
                "mime_type": "24", 
                "size": 274437
            }, 
            {
                "status": "new", 
                "is_shared": "no", 
                "share_id": "", 
                "user_id": 7, 
                "name": "IMG_0017.JPG", 
                "shared_by": 0, 
                "shared_date": "", 
                "share_level": "", 
                "parent_id": null, 
                "last_updated_date": "2012-08-07 08:31:27", 
                "last_updated_by": "Akhter, Fazeel", 
                "link": "http://ep-dev.yakimbi.com/edocs/download", 
                "created_date": "2012-08-07 08:31:27", 
                "item_id": 33, 
                "path": "My Files/IMG_0017.JPG", 
                "path_by_id": "/", 
                "type": "1", 
                "mime_type": "24", 
                "size": 211974
            }, 
            {
                "status": "new", 
                "is_shared": "no", 
                "share_id": "", 
                "user_id": 7, 
                "name": "IMG_0011.JPG", 
                "shared_by": 0, 
                "shared_date": "", 
                "share_level": "", 
                "parent_id": null, 
                "last_updated_date": "2012-08-07 08:31:32", 
                "last_updated_by": "Akhter, Fazeel", 
                "link": "http://ep-dev.yakimbi.com/edocs/download", 
                "created_date": "2012-08-07 08:31:32", 
                "item_id": 34, 
                "path": "My Files/IMG_0011.JPG", 
                "path_by_id": "/", 
                "type": "1", 
                "mime_type": "24", 
                "size": 254660
            }, 
            {
                "status": "new", 
                "is_shared": "no", 
                "share_id": "", 
                "user_id": 7, 
                "name": "Yakimbi0.8.102-Demo.ipa", 
                "shared_by": 0, 
                "shared_date": "", 
                "share_level": "", 
                "parent_id": 13, 
                "last_updated_date": "2012-08-07 08:32:29", 
                "last_updated_by": "Akhter, Fazeel", 
                "link": "http://ep-dev.yakimbi.com/edocs/download", 
                "created_date": "2012-08-07 08:32:29", 
                "item_id": 35, 
                "path": "My Files/files/Yakimbi0.8.102-Demo.ipa", 
                "path_by_id": "/13/", 
                "type": "1", 
                "mime_type": "80", 
                "size": 12964921
            }, 
            {
                "status": "new", 
                "is_shared": "no", 
                "share_id": "", 
                "user_id": 7, 
                "name": "Yakimbi0.8.103-Demo1.01.ipa", 
                "shared_by": 0, 
                "shared_date": "", 
                "share_level": "", 
                "parent_id": 13, 
                "last_updated_date": "2012-08-07 08:32:29", 
                "last_updated_by": "Akhter, Fazeel", 
                "link": "http://ep-dev.yakimbi.com/edocs/download", 
                "created_date": "2012-08-07 08:32:29", 
                "item_id": 36, 
                "path": "My Files/files/Yakimbi0.8.103-Demo1.01.ipa", 
                "path_by_id": "/13/", 
                "type": "1", 
                "mime_type": "80", 
                "size": 12965410
            }, 
            {
                "status": "new", 
                "is_shared": "no", 
                "share_id": "", 
                "user_id": 7, 
                "name": "Yakimbi0.90.100.ipa", 
                "shared_by": 0, 
                "shared_date": "", 
                "share_level": "", 
                "parent_id": 13, 
                "last_updated_date": "2012-08-07 08:32:44", 
                "last_updated_by": "Akhter, Fazeel", 
                "link": "http://ep-dev.yakimbi.com/edocs/download", 
                "created_date": "2012-08-07 08:32:44", 
                "item_id": 37, 
                "path": "My Files/files/Yakimbi0.90.100.ipa", 
                "path_by_id": "/13/", 
                "type": "1", 
                "mime_type": "80", 
                "size": 12482120
            }, 
            {
                "status": "new", 
                "is_shared": "no", 
                "share_id": "", 
                "user_id": 7, 
                "name": "Yakimbi0.8.101-Demo.ipa", 
                "shared_by": 0, 
                "shared_date": "", 
                "share_level": "", 
                "parent_id": 13, 
                "last_updated_date": "2012-08-07 08:32:58", 
                "last_updated_by": "Akhter, Fazeel", 
                "link": "http://ep-dev.yakimbi.com/edocs/download", 
                "created_date": "2012-08-07 08:32:58", 
                "item_id": 38, 
                "path": "My Files/files/Yakimbi0.8.101-Demo.ipa", 
                "path_by_id": "/13/", 
                "type": "1", 
                "mime_type": "80", 
                "size": 12965005
            }, 
            {
                "status": "new", 
                "is_shared": "no", 
                "share_id": "", 
                "user_id": 7, 
                "name": "Yakimbi0.8.103-Demo1.0.ipa", 
                "shared_by": 0, 
                "shared_date": "", 
                "share_level": "", 
                "parent_id": 13, 
                "last_updated_date": "2012-08-07 08:33:13", 
                "last_updated_by": "Akhter, Fazeel", 
                "link": "http://ep-dev.yakimbi.com/edocs/download", 
                "created_date": "2012-08-07 08:33:13", 
                "item_id": 39, 
                "path": "My Files/files/Yakimbi0.8.103-Demo1.0.ipa", 
                "path_by_id": "/13/", 
                "type": "1", 
                "mime_type": "80", 
                "size": 12965314
            }, 
            {
                "status": "new", 
                "is_shared": "no", 
                "share_id": "", 
                "user_id": 7, 
                "name": "Yakimbi0.8.103-Demo.ipa", 
                "shared_by": 0, 
                "shared_date": "", 
                "share_level": "", 
                "parent_id": 13, 
                "last_updated_date": "2012-08-07 08:33:27", 
                "last_updated_by": "Akhter, Fazeel", 
                "link": "http://ep-dev.yakimbi.com/edocs/download", 
                "created_date": "2012-08-07 08:33:27", 
                "item_id": 40, 
                "path": "My Files/files/Yakimbi0.8.103-Demo.ipa", 
                "path_by_id": "/13/", 
                "type": "1", 
                "mime_type": "80", 
                "size": 12965396
            }, 
            {
                "status": "new", 
                "is_shared": "no", 
                "share_id": "", 
                "user_id": 7, 
                "name": "Yakimbi0.8.101.ipa", 
                "shared_by": 0, 
                "shared_date": "", 
                "share_level": "", 
                "parent_id": 13, 
                "last_updated_date": "2012-08-07 08:33:42", 
                "last_updated_by": "Akhter, Fazeel", 
                "link": "http://ep-dev.yakimbi.com/edocs/download", 
                "created_date": "2012-08-07 08:33:42", 
                "item_id": 41, 
                "path": "My Files/files/Yakimbi0.8.101.ipa", 
                "path_by_id": "/13/", 
                "type": "1", 
                "mime_type": "80", 
                "size": 12963533
            }, 
            {
                "status": "new", 
                "is_shared": "no", 
                "share_id": "", 
                "user_id": 7, 
                "name": "Yakimbi0.8.105.ipa", 
                "shared_by": 0, 
                "shared_date": "", 
                "share_level": "", 
                "parent_id": 13, 
                "last_updated_date": "2012-08-07 08:33:56", 
                "last_updated_by": "Akhter, Fazeel", 
                "link": "http://ep-dev.yakimbi.com/edocs/download", 
                "created_date": "2012-08-07 08:33:56", 
                "item_id": 42, 
                "path": "My Files/files/Yakimbi0.8.105.ipa", 
                "path_by_id": "/13/", 
                "type": "1", 
                "mime_type": "80", 
                "size": 12974632
            }, 
            {
                "status": "new", 
                "is_shared": "no", 
                "share_id": "", 
                "user_id": 7, 
                "name": "Yakimbi0.90.100().ipa", 
                "shared_by": 0, 
                "shared_date": "", 
                "share_level": "", 
                "parent_id": 13, 
                "last_updated_date": "2012-08-07 08:34:11", 
                "last_updated_by": "Akhter, Fazeel", 
                "link": "http://ep-dev.yakimbi.com/edocs/download", 
                "created_date": "2012-08-07 08:34:11", 
                "item_id": 43, 
                "path": "My Files/files/Yakimbi0.90.100().ipa", 
                "path_by_id": "/13/", 
                "type": "1", 
                "mime_type": "80", 
                "size": 12482101
            }, 
            {
                "status": "new", 
                "is_shared": "no", 
                "share_id": "", 
                "user_id": 7, 
                "name": "Yakimbi0.8.99.ipa", 
                "shared_by": 0, 
                "shared_date": "", 
                "share_level": "", 
                "parent_id": 13, 
                "last_updated_date": "2012-08-07 08:34:27", 
                "last_updated_by": "Akhter, Fazeel", 
                "link": "http://ep-dev.yakimbi.com/edocs/download", 
                "created_date": "2012-08-07 08:34:27", 
                "item_id": 44, 
                "path": "My Files/files/Yakimbi0.8.99.ipa", 
                "path_by_id": "/13/", 
                "type": "1", 
                "mime_type": "80", 
                "size": 12961283
            }, 
            {
                "status": "new", 
                "is_shared": "no", 
                "share_id": "", 
                "user_id": 7, 
                "name": "Yakimbi0.8.100.ipa", 
                "shared_by": 0, 
                "shared_date": "", 
                "share_level": "", 
                "parent_id": 13, 
                "last_updated_date": "2012-08-07 08:34:43", 
                "last_updated_by": "Akhter, Fazeel", 
                "link": "http://ep-dev.yakimbi.com/edocs/download", 
                "created_date": "2012-08-07 08:34:43", 
                "item_id": 45, 
                "path": "My Files/files/Yakimbi0.8.100.ipa", 
                "path_by_id": "/13/", 
                "type": "1", 
                "mime_type": "80", 
                "size": 12963631
            }, 
            {
                "status": "new", 
                "is_shared": "no", 
                "share_id": "", 
                "user_id": 7, 
                "name": "Yakimbi0.8.99-Demo.ipa", 
                "shared_by": 0, 
                "shared_date": "", 
                "share_level": "", 
                "parent_id": 13, 
                "last_updated_date": "2012-08-07 08:34:59", 
                "last_updated_by": "Akhter, Fazeel", 
                "link": "http://ep-dev.yakimbi.com/edocs/download", 
                "created_date": "2012-08-07 08:34:59", 
                "item_id": 46, 
                "path": "My Files/files/Yakimbi0.8.99-Demo.ipa", 
                "path_by_id": "/13/", 
                "type": "1", 
                "mime_type": "80", 
                "size": 12960634
            }, 
            {
                "status": "new", 
                "is_shared": "no", 
                "share_id": "", 
                "user_id": 7, 
                "name": "Yakimbi0.8.97.ipa", 
                "shared_by": 0, 
                "shared_date": "", 
                "share_level": "", 
                "parent_id": 13, 
                "last_updated_date": "2012-08-07 08:35:15", 
                "last_updated_by": "Akhter, Fazeel", 
                "link": "http://ep-dev.yakimbi.com/edocs/download", 
                "created_date": "2012-08-07 08:35:15", 
                "item_id": 47, 
                "path": "My Files/files/Yakimbi0.8.97.ipa", 
                "path_by_id": "/13/", 
                "type": "1", 
                "mime_type": "80", 
                "size": 12058002
            }, 
            {
                "status": "new", 
                "is_shared": "no", 
                "share_id": "", 
                "user_id": 7, 
                "name": "Yakimbi0.8.92.ipa", 
                "shared_by": 0, 
                "shared_date": "", 
                "share_level": "", 
                "parent_id": 13, 
                "last_updated_date": "2012-08-07 08:35:30", 
                "last_updated_by": "Akhter, Fazeel", 
                "link": "http://ep-dev.yakimbi.com/edocs/download", 
                "created_date": "2012-08-07 08:35:30", 
                "item_id": 48, 
                "path": "My Files/files/Yakimbi0.8.92.ipa", 
                "path_by_id": "/13/", 
                "type": "1", 
                "mime_type": "80", 
                "size": 12066950
            }, 
            {
                "status": "new", 
                "is_shared": "no", 
                "share_id": "", 
                "user_id": 7, 
                "name": "git.from.bottom.up.pdf", 
                "shared_by": 0, 
                "shared_date": "", 
                "share_level": "", 
                "parent_id": null, 
                "last_updated_date": "2012-08-07 08:37:59", 
                "last_updated_by": "Akhter, Fazeel", 
                "link": "http://ep-dev.yakimbi.com/edocs/download", 
                "created_date": "2012-08-07 08:37:59", 
                "item_id": 50, 
                "path": "My Files/git.from.bottom.up.pdf", 
                "path_by_id": "/", 
                "type": "1", 
                "mime_type": "3", 
                "size": 811094
            }, 
            {
                "status": "new", 
                "is_shared": "no", 
                "share_id": "", 
                "user_id": 7, 
                "name": "progit.pdf", 
                "shared_by": 0, 
                "shared_date": "", 
                "share_level": "", 
                "parent_id": null, 
                "last_updated_date": "2012-08-07 08:38:14", 
                "last_updated_by": "Akhter, Fazeel", 
                "link": "http://ep-dev.yakimbi.com/edocs/download", 
                "created_date": "2012-08-07 08:38:14", 
                "item_id": 52, 
                "path": "My Files/progit.pdf", 
                "path_by_id": "/", 
                "type": "1", 
                "mime_type": "3", 
                "size": 4052928
            }, 
            {
                "status": "new", 
                "is_shared": "no", 
                "share_id": "", 
                "user_id": 7, 
                "name": "Abc.rtf", 
                "shared_by": 0, 
                "shared_date": "", 
                "share_level": "", 
                "parent_id": null, 
                "last_updated_date": "2012-08-07 08:38:20", 
                "last_updated_by": "Akhter, Fazeel", 
                "link": "http://ep-dev.yakimbi.com/edocs/download", 
                "created_date": "2012-08-07 08:38:20", 
                "item_id": 53, 
                "path": "My Files/Abc.rtf", 
                "path_by_id": "/", 
                "type": "1", 
                "mime_type": "693", 
                "size": 338
            }, 
            {
                "status": "remove", 
                "is_shared": "no", 
                "share_id": "", 
                "user_id": 7, 
                "name": "ie_2011.pdf", 
                "shared_by": 0, 
                "shared_date": "", 
                "share_level": "", 
                "parent_id": null, 
                "last_updated_date": "2012-08-07 08:42:52", 
                "last_updated_by": "Akhter, Fazeel", 
                "link": "http://ep-dev.yakimbi.com/edocs/download", 
                "created_date": "2012-08-07 08:37:58", 
                "item_id": 49, 
                "path": "My Files/", 
                "path_by_id": "/", 
                "type": "1", 
                "mime_type": "3", 
                "size": 106918
            }, 
            {
                "status": "move", 
                "is_shared": "no", 
                "share_id": "", 
                "user_id": 7, 
                "name": "Abc.rtf", 
                "shared_by": 0, 
                "shared_date": "", 
                "share_level": "", 
                "parent_id": 13, 
                "last_updated_date": "2012-08-13 08:00:51", 
                "last_updated_by": "Akhter, Fazeel", 
                "link": "http://ep-dev.yakimbi.com/edocs/download", 
                "created_date": "2012-08-07 08:38:20", 
                "item_id": 53, 
                "path": "My Files/files/Abc.rtf", 
                "path_by_id": "/13/", 
                "type": "1", 
                "mime_type": "693", 
                "size": 338
            }, 
            {
                "status": "move", 
                "is_shared": "no", 
                "share_id": "", 
                "user_id": 7, 
                "name": "IMG_0012.JPG", 
                "shared_by": 0, 
                "shared_date": "", 
                "share_level": "", 
                "parent_id": 13, 
                "last_updated_date": "2012-08-13 08:01:10", 
                "last_updated_by": "Akhter, Fazeel", 
                "link": "http://ep-dev.yakimbi.com/edocs/download", 
                "created_date": "2012-08-07 08:31:22", 
                "item_id": 32, 
                "path": "My Files/files/IMG_0012.JPG", 
                "path_by_id": "/13/", 
                "type": "1", 
                "mime_type": "24", 
                "size": 274437
            }, 
            {
                "status": "move", 
                "is_shared": "no", 
                "share_id": "", 
                "user_id": 7, 
                "name": "IMG_0011.JPG", 
                "shared_by": 0, 
                "shared_date": "", 
                "share_level": "", 
                "parent_id": 13, 
                "last_updated_date": "2012-08-13 08:02:27", 
                "last_updated_by": "Akhter, Fazeel", 
                "link": "http://ep-dev.yakimbi.com/edocs/download", 
                "created_date": "2012-08-07 08:31:32", 
                "item_id": 34, 
                "path": "My Files/files/IMG_0011.JPG", 
                "path_by_id": "/13/", 
                "type": "1", 
                "mime_type": "24", 
                "size": 254660
            }, 
            {
                "status": "move", 
                "is_shared": "no", 
                "share_id": "", 
                "user_id": 7, 
                "name": "IMG_0013.JPG", 
                "shared_by": 0, 
                "shared_date": "", 
                "share_level": "", 
                "parent_id": 13, 
                "last_updated_date": "2012-08-13 08:02:43", 
                "last_updated_by": "Akhter, Fazeel", 
                "link": "http://ep-dev.yakimbi.com/edocs/download", 
                "created_date": "2012-08-07 08:31:01", 
                "item_id": 28, 
                "path": "My Files/files/IMG_0013.JPG", 
                "path_by_id": "/13/", 
                "type": "1", 
                "mime_type": "24", 
                "size": 238826
            }, 
            {
                "status": "move", 
                "is_shared": "no", 
                "share_id": "", 
                "user_id": 7, 
                "name": "IMG_0014.JPG", 
                "shared_by": 0, 
                "shared_date": "", 
                "share_level": "", 
                "parent_id": 13, 
                "last_updated_date": "2012-08-13 08:03:01", 
                "last_updated_by": "Akhter, Fazeel", 
                "link": "http://ep-dev.yakimbi.com/edocs/download", 
                "created_date": "2012-08-07 08:31:16", 
                "item_id": 31, 
                "path": "My Files/files/IMG_0014.JPG", 
                "path_by_id": "/13/", 
                "type": "1", 
                "mime_type": "24", 
                "size": 258099
            }, 
            {
                "status": "move", 
                "is_shared": "no", 
                "share_id": "", 
                "user_id": 7, 
                "name": "IMG_0022.JPG", 
                "shared_by": 0, 
                "shared_date": "", 
                "share_level": "", 
                "parent_id": 13, 
                "last_updated_date": "2012-08-13 08:03:17", 
                "last_updated_by": "Akhter, Fazeel", 
                "link": "http://ep-dev.yakimbi.com/edocs/download", 
                "created_date": "2012-08-07 08:30:45", 
                "item_id": 25, 
                "path": "My Files/files/IMG_0022.JPG", 
                "path_by_id": "/13/", 
                "type": "1", 
                "mime_type": "24", 
                "size": 258605
            }, 
            {
                "status": "move", 
                "is_shared": "no", 
                "share_id": "", 
                "user_id": 7, 
                "name": "IMG_0015.JPG", 
                "shared_by": 0, 
                "shared_date": "", 
                "share_level": "", 
                "parent_id": 13, 
                "last_updated_date": "2012-08-13 08:04:15", 
                "last_updated_by": "Akhter, Fazeel", 
                "link": "http://ep-dev.yakimbi.com/edocs/download", 
                "created_date": "2012-08-07 08:31:11", 
                "item_id": 30, 
                "path": "My Files/files/IMG_0015.JPG", 
                "path_by_id": "/13/", 
                "type": "1", 
                "mime_type": "24", 
                "size": 243848
            }, 
            {
                "status": "move", 
                "is_shared": "no", 
                "share_id": "", 
                "user_id": 7, 
                "name": "git.from.bottom.up.pdf", 
                "shared_by": 0, 
                "shared_date": "", 
                "share_level": "", 
                "parent_id": 13, 
                "last_updated_date": "2012-08-13 08:04:37", 
                "last_updated_by": "Akhter, Fazeel", 
                "link": "http://ep-dev.yakimbi.com/edocs/download", 
                "created_date": "2012-08-07 08:37:59", 
                "item_id": 50, 
                "path": "My Files/files/git.from.bottom.up.pdf", 
                "path_by_id": "/13/", 
                "type": "1", 
                "mime_type": "3", 
                "size": 811094
            }, 
            {
                "status": "new", 
                "is_shared": "no", 
                "share_id": "", 
                "user_id": 7, 
                "name": "Fazeel123.pdf", 
                "shared_by": 0, 
                "shared_date": "", 
                "share_level": "", 
                "parent_id": null, 
                "last_updated_date": "2012-08-17 09:38:26", 
                "last_updated_by": "Akhter, Fazeel", 
                "link": "http://ep-dev.yakimbi.com/edocs/download", 
                "created_date": "2012-08-17 09:38:26", 
                "item_id": 2553, 
                "path": "My Files/Fazeel123.pdf", 
                "path_by_id": "/", 
                "type": "1", 
                "mime_type": "3", 
                "size": 35226082
            }, 
            {
                "status": "new", 
                "is_shared": "no", 
                "share_id": "", 
                "user_id": 7, 
                "name": "Fazeel123 (1).pdf", 
                "shared_by": 0, 
                "shared_date": "", 
                "share_level": "", 
                "parent_id": null, 
                "last_updated_date": "2012-08-17 09:39:42", 
                "last_updated_by": "Akhter, Fazeel", 
                "link": "http://ep-dev.yakimbi.com/edocs/download", 
                "created_date": "2012-08-17 09:39:42", 
                "item_id": 2554, 
                "path": "My Files/Fazeel123 (1).pdf", 
                "path_by_id": "/", 
                "type": "1", 
                "mime_type": "3", 
                "size": 35226082
            }, 
            {
                "status": "new", 
                "is_shared": "no", 
                "share_id": "", 
                "user_id": 7, 
                "name": "Fazeel123 (3).pdf", 
                "shared_by": 0, 
                "shared_date": "", 
                "share_level": "", 
                "parent_id": null, 
                "last_updated_date": "2012-08-17 09:42:25", 
                "last_updated_by": "Akhter, Fazeel", 
                "link": "http://ep-dev.yakimbi.com/edocs/download", 
                "created_date": "2012-08-17 09:42:25", 
                "item_id": 2556, 
                "path": "My Files/Fazeel123 (3).pdf", 
                "path_by_id": "/", 
                "type": "1", 
                "mime_type": "3", 
                "size": 1228783
            }, 
            {
                "status": "new", 
                "is_shared": "no", 
                "share_id": "", 
                "user_id": 7, 
                "name": "Hello123.pdf", 
                "shared_by": 0, 
                "shared_date": "", 
                "share_level": "", 
                "parent_id": null, 
                "last_updated_date": "2012-08-17 09:46:11", 
                "last_updated_by": "Akhter, Fazeel", 
                "link": "http://ep-dev.yakimbi.com/edocs/download", 
                "created_date": "2012-08-17 09:46:11", 
                "item_id": 2557, 
                "path": "My Files/Hello123.pdf", 
                "path_by_id": "/", 
                "type": "1", 
                "mime_type": "3", 
                "size": 1228711
            }, 
            {
                "status": "remove", 
                "is_shared": "no", 
                "share_id": "", 
                "user_id": 7, 
                "name": "intro-to-git.pdf", 
                "shared_by": 0, 
                "shared_date": "", 
                "share_level": "", 
                "parent_id": null, 
                "last_updated_date": "2012-08-17 09:57:29", 
                "last_updated_by": "Akhter, Fazeel", 
                "link": "http://ep-dev.yakimbi.com/edocs/download", 
                "created_date": "2012-08-07 08:38:07", 
                "item_id": 51, 
                "path": "My Files/", 
                "path_by_id": "/", 
                "type": "1", 
                "mime_type": "3", 
                "size": 35198010
            }, 
            {
                "status": "new", 
                "is_shared": "no", 
                "share_id": "", 
                "user_id": 7, 
                "name": "A-B-C.pdf", 
                "shared_by": 0, 
                "shared_date": "", 
                "share_level": "", 
                "parent_id": 13, 
                "last_updated_date": "2012-08-17 10:18:31", 
                "last_updated_by": "Akhter, Fazeel", 
                "link": "http://ep-dev.yakimbi.com/edocs/download", 
                "created_date": "2012-08-17 10:18:31", 
                "item_id": 2571, 
                "path": "My Files/files/A-B-C.pdf", 
                "path_by_id": "/13/", 
                "type": "1", 
                "mime_type": "3", 
                "size": 202944
            }, 
            {
                "status": "update", 
                "is_shared": "no", 
                "share_id": "", 
                "user_id": 7, 
                "name": "A-B-C.pdf", 
                "shared_by": 0, 
                "shared_date": "", 
                "share_level": "", 
                "parent_id": 13, 
                "last_updated_date": "2012-08-17 10:24:15", 
                "last_updated_by": "Akhter, Fazeel", 
                "link": "http://ep-dev.yakimbi.com/edocs/download", 
                "created_date": "2012-08-17 10:18:31", 
                "item_id": 2571, 
                "path": "My Files/files/A-B-C.pdf", 
                "path_by_id": "/13/", 
                "type": "1", 
                "mime_type": "3", 
                "size": 225223
            }, 
            {
                "status": "new", 
                "is_shared": "no", 
                "share_id": "", 
                "user_id": 7, 
                "name": "intro.to.git copy.pdf", 
                "shared_by": 0, 
                "shared_date": "", 
                "share_level": "", 
                "parent_id": null, 
                "last_updated_date": "2012-08-17 11:22:40", 
                "last_updated_by": "Akhter, Fazeel", 
                "link": "http://ep-dev.yakimbi.com/edocs/download", 
                "created_date": "2012-08-17 11:22:40", 
                "item_id": 2572, 
                "path": "My Files/intro.to.git copy.pdf", 
                "path_by_id": "/", 
                "type": "1", 
                "mime_type": "3", 
                "size": 3768327
            }, 
            {
                "status": "new", 
                "is_shared": "no", 
                "share_id": "", 
                "user_id": 7, 
                "name": "intro-to-git.pdf", 
                "shared_by": 0, 
                "shared_date": "", 
                "share_level": "", 
                "parent_id": null, 
                "last_updated_date": "2012-08-17 11:22:41", 
                "last_updated_by": "Akhter, Fazeel", 
                "link": "http://ep-dev.yakimbi.com/edocs/download", 
                "created_date": "2012-08-17 11:22:41", 
                "item_id": 2573, 
                "path": "My Files/intro-to-git.pdf", 
                "path_by_id": "/", 
                "type": "1", 
                "mime_type": "3", 
                "size": 3768327
            }, 
            {
                "status": "new", 
                "is_shared": "no", 
                "share_id": "", 
                "user_id": 7, 
                "name": "NewBig.pdf", 
                "shared_by": 0, 
                "shared_date": "", 
                "share_level": "", 
                "parent_id": null, 
                "last_updated_date": "2012-08-17 14:20:13", 
                "last_updated_by": "Akhter, Fazeel", 
                "link": "http://ep-dev.yakimbi.com/edocs/download", 
                "created_date": "2012-08-17 14:20:13", 
                "item_id": 2583, 
                "path": "My Files/NewBig.pdf", 
                "path_by_id": "/", 
                "type": "1", 
                "mime_type": "3", 
                "size": 35197803
            }, 
            {
                "status": "new", 
                "is_shared": "no", 
                "share_id": "", 
                "user_id": 7, 
                "name": "Fazil123.pdf", 
                "shared_by": 0, 
                "shared_date": "", 
                "share_level": "", 
                "parent_id": null, 
                "last_updated_date": "2012-08-17 15:17:41", 
                "last_updated_by": "Akhter, Fazeel", 
                "link": "http://ep-dev.yakimbi.com/edocs/download", 
                "created_date": "2012-08-17 15:17:41", 
                "item_id": 2594, 
                "path": "My Files/Fazil123.pdf", 
                "path_by_id": "/", 
                "type": "1", 
                "mime_type": "3", 
                "size": 35197520
            }, 
            {
                "status": "update", 
                "is_shared": "no", 
                "share_id": "", 
                "user_id": 7, 
                "name": "intro-to-git.pdf", 
                "shared_by": 0, 
                "shared_date": "", 
                "share_level": "", 
                "parent_id": null, 
                "last_updated_date": "2012-08-17 15:21:49", 
                "last_updated_by": "Akhter, Fazeel", 
                "link": "http://ep-dev.yakimbi.com/edocs/download", 
                "created_date": "2012-08-17 11:22:41", 
                "item_id": 2573, 
                "path": "My Files/intro-to-git.pdf", 
                "path_by_id": "/", 
                "type": "1", 
                "mime_type": "3", 
                "size": 35198931
            }, 
            {
                "status": "remove", 
                "is_shared": "no", 
                "share_id": "", 
                "user_id": 7, 
                "name": "Fazeel123 (2).pdf", 
                "shared_by": 0, 
                "shared_date": "", 
                "share_level": "", 
                "parent_id": null, 
                "last_updated_date": "2012-08-17 09:40:57", 
                "last_updated_by": "Akhter, Fazeel", 
                "link": "http://ep-dev.yakimbi.com/edocs/download", 
                "created_date": "2012-08-17 09:40:57", 
                "item_id": 2555, 
                "path": "My Files/", 
                "path_by_id": "/", 
                "type": "1", 
                "mime_type": "3", 
                "size": 35226082
            }, 
            {
                "status": "update", 
                "is_shared": "no", 
                "share_id": "", 
                "user_id": 7, 
                "name": "Fazeel123 (1).pdf", 
                "shared_by": 0, 
                "shared_date": "", 
                "share_level": "", 
                "parent_id": null, 
                "last_updated_date": "2012-08-30 09:02:41", 
                "last_updated_by": "Akhter, Fazeel", 
                "link": "http://ep-dev.yakimbi.com/edocs/download", 
                "created_date": "2012-08-17 09:39:42", 
                "item_id": 2554, 
                "path": "My Files/Fazeel123 (1).pdf", 
                "path_by_id": "/", 
                "type": "1", 
                "mime_type": "3", 
                "size": 35226270
            }, 
            {
                "status": "new", 
                "is_shared": "no", 
                "share_id": "", 
                "user_id": 7, 
                "name": "NewFileNameTezt.pdf", 
                "shared_by": 0, 
                "shared_date": "", 
                "share_level": "", 
                "parent_id": null, 
                "last_updated_date": "2012-08-30 09:03:48", 
                "last_updated_by": "Akhter, Fazeel", 
                "link": "http://ep-dev.yakimbi.com/edocs/download", 
                "created_date": "2012-08-30 09:03:48", 
                "item_id": 3744, 
                "path": "My Files/NewFileNameTezt.pdf", 
                "path_by_id": "/", 
                "type": "1", 
                "mime_type": "3", 
                "size": 1228100
            }
        ], 
        "name": "My Files", 
        "id": "S1"
    }, 
    "rev_id": 119, 
    "shared_files": {
        "content": [
            {
                "status": "new", 
                "is_shared": "yes", 
                "share_id": "13", 
                "user_id": 7, 
                "name": "Wily Pics", 
                "shared_by": 0, 
                "created_date": "2012-08-07 14:39:56", 
                "shared_date": "", 
                "share_level": 0, 
                "parent_id": null, 
                "last_updated_date": "2012-08-07 14:39:56", 
                "last_updated_by": "Azril, Amir", 
                "link": "", 
                "trans_type": "shared_files", 
                "item_id": 474, 
                "path": "", 
                "path_by_id": "/", 
                "type": "0", 
                "mime_type": "", 
                "size": 0
            }, 
            {
                "status": "new", 
                "is_shared": "yes", 
                "share_id": "13", 
                "user_id": 7, 
                "name": "Wily Pics", 
                "shared_by": 0, 
                "created_date": "2012-08-07 14:39:56", 
                "shared_date": "", 
                "share_level": 0, 
                "parent_id": null, 
                "last_updated_date": "2012-08-07 14:39:56", 
                "last_updated_by": "Azril, Amir", 
                "link": "", 
                "trans_type": "shared_files", 
                "item_id": 474, 
                "path": "", 
                "path_by_id": "/", 
                "type": "0", 
                "mime_type": "", 
                "size": 0
            }, 
            {
                "status": "new", 
                "is_shared": "yes", 
                "share_id": "13", 
                "user_id": 7, 
                "name": "Wily Pics", 
                "shared_by": 0, 
                "created_date": "2012-08-07 14:39:56", 
                "shared_date": "", 
                "share_level": 0, 
                "parent_id": null, 
                "last_updated_date": "2012-08-07 14:39:56", 
                "last_updated_by": "Azril, Amir", 
                "link": "", 
                "trans_type": "shared_files", 
                "item_id": 474, 
                "path": "", 
                "path_by_id": "/", 
                "type": "0", 
                "mime_type": "", 
                "size": 0
            }, 
            {
                "status": "new", 
                "is_shared": "yes", 
                "share_id": "13", 
                "user_id": 7, 
                "name": "Wily Pics", 
                "shared_by": 0, 
                "created_date": "2012-08-07 14:39:56", 
                "shared_date": "", 
                "share_level": 0, 
                "parent_id": null, 
                "last_updated_date": "2012-08-07 14:39:56", 
                "last_updated_by": "Azril, Amir", 
                "link": "", 
                "trans_type": "shared_files", 
                "item_id": 474, 
                "path": "", 
                "path_by_id": "/", 
                "type": "0", 
                "mime_type": "", 
                "size": 0
            }, 
            {
                "status": "new", 
                "is_shared": "yes", 
                "share_id": "14", 
                "user_id": 7, 
                "name": "Sample PDF Form.pdf", 
                "shared_by": 0, 
                "created_date": "2012-08-08 09:49:24", 
                "shared_date": "", 
                "share_level": 0, 
                "parent_id": null, 
                "last_updated_date": "2012-08-08 09:49:24", 
                "last_updated_by": "Azril, Amir", 
                "link": "http://ep-dev.yakimbi.com/edocs/download", 
                "trans_type": "shared_files", 
                "item_id": 493, 
                "path": "", 
                "path_by_id": "/", 
                "type": "1", 
                "mime_type": "0", 
                "size": 1251022
            }, 
            {
                "status": "new", 
                "is_shared": "yes", 
                "share_id": "23", 
                "user_id": 7, 
                "name": "Lamborghini Aventador Twin Turbo LP700-4 by Underground Racing - YouTube.mp4", 
                "shared_by": 0, 
                "created_date": "2012-08-10 10:23:44", 
                "shared_date": "", 
                "share_level": 1, 
                "parent_id": null, 
                "last_updated_date": "2012-08-10 10:23:44", 
                "last_updated_by": "Azril, Amir", 
                "link": "http://ep-dev.yakimbi.com/edocs/download", 
                "trans_type": "shared_files", 
                "item_id": 594, 
                "path": "", 
                "path_by_id": "/", 
                "type": "1", 
                "mime_type": "32", 
                "size": 81451140
            }, 
            {
                "status": "new", 
                "is_shared": "yes", 
                "share_id": "24", 
                "user_id": 7, 
                "name": "Sample PDF Form.pdf", 
                "shared_by": 0, 
                "created_date": "2012-08-08 09:49:24", 
                "shared_date": "", 
                "share_level": 1, 
                "parent_id": null, 
                "last_updated_date": "2012-08-08 09:49:24", 
                "last_updated_by": "Azril, Amir", 
                "link": "http://ep-dev.yakimbi.com/edocs/download", 
                "trans_type": "shared_files", 
                "item_id": 493, 
                "path": "", 
                "path_by_id": "/", 
                "type": "1", 
                "mime_type": "0", 
                "size": 1251022
            }, 
            {
                "status": "remove", 
                "is_shared": "yes", 
                "share_id": "", 
                "user_id": 7, 
                "name": "IMG_20120726_084545 (1).jpg", 
                "shared_by": 0, 
                "created_date": "2012-08-07 14:52:46", 
                "shared_date": "", 
                "share_level": -1, 
                "parent_id": 474, 
                "last_updated_date": "2012-08-07 14:52:46", 
                "last_updated_by": "Azril, Amir", 
                "link": "http://ep-dev.yakimbi.com/edocs/download", 
                "trans_type": "shared_files", 
                "item_id": 481, 
                "path": "Shared Files/Wily Pics", 
                "path_by_id": "/474/", 
                "type": "1", 
                "mime_type": "24", 
                "size": 1010386
            }, 
            {
                "status": "new", 
                "is_shared": "yes", 
                "share_id": "26", 
                "user_id": 7, 
                "name": "BlondDrive.tv Lamborghini Gallardo Superleggera.mp4", 
                "shared_by": 0, 
                "created_date": "2012-08-14 13:10:39", 
                "shared_date": "", 
                "share_level": 0, 
                "parent_id": null, 
                "last_updated_date": "2012-08-14 13:10:57", 
                "last_updated_by": "Azril, Amir", 
                "link": "http://ep-dev.yakimbi.com/edocs/download", 
                "trans_type": "shared_files", 
                "item_id": 910, 
                "path": "", 
                "path_by_id": "/", 
                "type": "1", 
                "mime_type": "32", 
                "size": 93502738
            }, 
            {
                "status": "new", 
                "is_shared": "yes", 
                "share_id": "26", 
                "user_id": 7, 
                "name": "BlondDrive.tv Lamborghini Gallardo Superleggera.mp4", 
                "shared_by": 0, 
                "created_date": "2012-08-14 13:10:39", 
                "shared_date": "", 
                "share_level": 0, 
                "parent_id": null, 
                "last_updated_date": "2012-08-14 13:10:57", 
                "last_updated_by": "Azril, Amir", 
                "link": "http://ep-dev.yakimbi.com/edocs/download", 
                "trans_type": "shared_files", 
                "item_id": 910, 
                "path": "", 
                "path_by_id": "/", 
                "type": "1", 
                "mime_type": "32", 
                "size": 93502738
            }, 
            {
                "status": "new", 
                "is_shared": "yes", 
                "share_id": "41", 
                "user_id": 7, 
                "name": "20 Mar 2012 18 53 19.png", 
                "shared_by": 0, 
                "created_date": "2012-08-17 09:50:34", 
                "shared_date": "", 
                "share_level": 1, 
                "parent_id": 2558, 
                "last_updated_date": "2012-08-17 09:50:34", 
                "last_updated_by": "Azril, Amir", 
                "link": "http://ep-dev.yakimbi.com/edocs/download", 
                "trans_type": "shared_files", 
                "item_id": 2560, 
                "path": "", 
                "path_by_id": "/", 
                "type": "1", 
                "mime_type": "25", 
                "size": 285251
            }, 
            {
                "status": "new", 
                "is_shared": "yes", 
                "share_id": "42", 
                "user_id": 7, 
                "name": "20 Mar 2012 18 54 06.png", 
                "shared_by": 0, 
                "created_date": "2012-08-17 09:51:04", 
                "shared_date": "", 
                "share_level": 1, 
                "parent_id": 2558, 
                "last_updated_date": "2012-08-17 09:51:04", 
                "last_updated_by": "Azril, Amir", 
                "link": "http://ep-dev.yakimbi.com/edocs/download", 
                "trans_type": "shared_files", 
                "item_id": 2561, 
                "path": "", 
                "path_by_id": "/", 
                "type": "1", 
                "mime_type": "25", 
                "size": 341775
            }, 
            {
                "status": "new", 
                "is_shared": "yes", 
                "share_id": "43", 
                "user_id": 7, 
                "name": "23 Dec 2011 12 10 22.png", 
                "shared_by": 0, 
                "created_date": "2012-08-17 09:51:30", 
                "shared_date": "", 
                "share_level": 1, 
                "parent_id": 2558, 
                "last_updated_date": "2012-08-17 09:51:30", 
                "last_updated_by": "Azril, Amir", 
                "link": "http://ep-dev.yakimbi.com/edocs/download", 
                "trans_type": "shared_files", 
                "item_id": 2562, 
                "path": "", 
                "path_by_id": "/", 
                "type": "1", 
                "mime_type": "25", 
                "size": 262125
            }, 
            {
                "status": "new", 
                "is_shared": "yes", 
                "share_id": "45", 
                "user_id": 7, 
                "name": "Revoltech-Optimus-Prime-01_1309801084.jpg", 
                "shared_by": 0, 
                "created_date": "2012-08-17 09:57:25", 
                "shared_date": "", 
                "share_level": 1, 
                "parent_id": 2558, 
                "last_updated_date": "2012-08-17 09:57:25", 
                "last_updated_by": "Azril, Amir", 
                "link": "http://ep-dev.yakimbi.com/edocs/download", 
                "trans_type": "shared_files", 
                "item_id": 2563, 
                "path": "", 
                "path_by_id": "/", 
                "type": "1", 
                "mime_type": "24", 
                "size": 160156
            }, 
            {
                "status": "new", 
                "is_shared": "yes", 
                "share_id": "46", 
                "user_id": 7, 
                "name": "Revoltech-Optimus-Prime-02_1309801084.jpg", 
                "shared_by": 0, 
                "created_date": "2012-08-17 09:57:26", 
                "shared_date": "", 
                "share_level": 1, 
                "parent_id": 2558, 
                "last_updated_date": "2012-08-17 09:57:26", 
                "last_updated_by": "Azril, Amir", 
                "link": "http://ep-dev.yakimbi.com/edocs/download", 
                "trans_type": "shared_files", 
                "item_id": 2564, 
                "path": "", 
                "path_by_id": "/", 
                "type": "1", 
                "mime_type": "24", 
                "size": 247136
            }, 
            {
                "status": "new", 
                "is_shared": "yes", 
                "share_id": "52", 
                "user_id": 7, 
                "name": "A-B-C.pdf", 
                "shared_by": 0, 
                "created_date": "2012-08-27 13:46:29", 
                "shared_date": "", 
                "share_level": 0, 
                "parent_id": null, 
                "last_updated_date": "2012-08-27 13:46:29", 
                "last_updated_by": "account, Test", 
                "link": "http://ep-dev.yakimbi.com/edocs/download", 
                "trans_type": "shared_files", 
                "item_id": 3725, 
                "path": "", 
                "path_by_id": "/", 
                "type": "1", 
                "mime_type": "3", 
                "size": 202944
            }, 
            {
                "status": "new", 
                "is_shared": "yes", 
                "share_id": "53", 
                "user_id": 7, 
                "name": "Fire Evacuation Plan - Map.jpg", 
                "shared_by": 0, 
                "created_date": "2012-08-27 13:46:02", 
                "shared_date": "", 
                "share_level": 0, 
                "parent_id": null, 
                "last_updated_date": "2012-08-27 13:46:02", 
                "last_updated_by": "account, Test", 
                "link": "http://ep-dev.yakimbi.com/edocs/download", 
                "trans_type": "shared_files", 
                "item_id": 3723, 
                "path": "", 
                "path_by_id": "/", 
                "type": "1", 
                "mime_type": "24", 
                "size": 127253
            }
        ], 
        "name": "Shared Files", 
        "id": "S2"
    }
}